-----Name-----
Test22 vs Test33
-----Date-----
2020.06.11
-----Location-----
NNN
-----Seats-----
A1 4000 EMPTY
A2 4000 EMPTY
A3 4000 EMPTY
A4 4000 EMPTY
A5 4000 EMPTY
A6 4000 EMPTY
B1 3000 EMPTY
B2 3000 EMPTY
B3 3000 EMPTY
B4 3000 EMPTY
B5 3000 EMPTY
B6 3000 EMPTY
C1 1000 EMPTY
C2 1000 EMPTY
C3 1000 EMPTY
C4 1000 EMPTY
C5 1000 C
C6 1000 C
-----END-----