-----Name-----
Test99 vs Test88
-----Date-----
2020.06.02
-----Location-----
PPPPP
-----Seats-----
A1 4000 FUCK
A2 4000 YA
A3 4000 0000
A4 4000 YA
A5 4000 YA
A6 4000 EMPTY
B1 3000 YA
B2 3000 YA
B3 3000 YA
B4 3000 EMPTY
B5 3000 YA
B6 3000 EMPTY
C1 1000 YA
C2 1000 EMPTY
C3 1000 EMPTY
C4 1000 EMPTY
C5 1000 EMPTY
C6 50 Member1
-----END-----